3 AED - cap 3 - As Distribuições Normais – __Ciência de Dados e Estatística Aplicadas ao Direito e Políticas Públicas__
…
Nomes das 24 colunas do objeto obitj_csv:
 [1] "nomean"    "maean"     "nasc"      "sexo"      "cor"       "corag"    
 [7] "dom"       "dataesc1"  "esc1"      "esc2"      "compfam"   "relpai"   
[13] "usudrog"   "subst"     "orgcrim"   "sitdiv"    "dataobt"   "morte"    
[19] "paf"       "circobt"   "obsobt"    "idadeobtd" "idadeobta" "npassag"  
# A tibble: 447 × 24
   nomean     maean    nasc       sexo  cor   corag dom   dataesc1   esc1  esc2 
   <chr>      <chr>    <date>     <chr> <chr> <chr> <chr> <date>     <chr> <chr>
 1 A.J.D.S.A. L.M.D.S… 2001-04-21 m     bran… bran… Bair… 2018-09-28 6 ano <NA> 
 2 A.G.M.B.   A.D.S.M… 2000-09-04 m     pardo negro <NA>  NA         <NA>  8 ano
 3 A.G.D.S.   F.A.G.   1997-06-22 m     <NA>  <NA>  <NA>  NA         <NA>  9 ano
 4 A.J.D.S.S. S.D.S.S. 2002-05-01 m     pardo negro Vila… 2020-02-09 1 sé… 1 sé…
 5 A.A.D.A.   A.A.D.A. 1999-10-13 m     <NA>  <NA>  <NA>  NA         <NA>  8 ano
 6 A.E.M.     M.E.M.   2001-03-25 m     bran… bran… <NA>  2018-10-23 8 ano 8 ano
 7 A.C.A.     J.A.D.A. 2000-12-18 m     pardo negro Seto… 2018-11-18 8 ano 8 ano
 8 A.O.       D.G.B.S. 2003-09-30 m     bran… bran… Bair… 2019-10-01 8 ano 8 ano
 9 A.R.C.     M.D.R.D… 2001-02-24 m     pardo negro <NA>  NA         <NA>  <NA> 
10 A.O.S.     K.R.S.   2003-02-06 m     pardo negro Parq… 2018-07-17 9 ano 8 ano
# ℹ 437 more rows
# ℹ 14 more variables: compfam <chr>, relpai <chr>, usudrog <chr>, subst <chr>,
#   orgcrim <chr>, sitdiv <chr>, dataobt <date>, morte <chr>, paf <chr>,
#   circobt <chr>, obsobt <chr>, idadeobtd <dbl>, idadeobta <dbl>,
#   npassag <dbl>
…
obitj_csv |> 
  head(25)
```

# A tibble: 25 × 24
   nomean     maean    nasc       sexo  cor   corag dom   dataesc1   esc1  esc2 
   <chr>      <chr>    <date>     <fct> <fct> <fct> <chr> <date>     <fct> <fct>
 1 A.J.D.S.A. L.M.D.S… 2001-04-21 M     bran… bran… Bair… 2018-09-28 6ano  <NA> 
 2 A.G.M.B.   A.D.S.M… 2000-09-04 M     pardo negro <NA>  NA         <NA>  8ano 
 3 A.G.D.S.   F.A.G.   1997-06-22 M     <NA>  <NA>  <NA>  NA         <NA>  9ano 
 4 A.J.D.S.S. S.D.S.S. 2002-05-01 M     pardo negro Vila… 2020-02-09 1ser… 1ser…
 5 A.A.D.A.   A.A.D.A. 1999-10-13 M     <NA>  <NA>  <NA>  NA         <NA>  8ano 
 6 A.E.M.     M.E.M.   2001-03-25 M     bran… bran… <NA>  2018-10-23 8ano  8ano 
 7 A.C.A.     J.A.D.A. 2000-12-18 M     pardo negro Seto… 2018-11-18 8ano  8ano 
 8 A.O.       D.G.B.S. 2003-09-30 M     bran… bran… Bair… 2019-10-01 8ano  8ano 
 9 A.R.C.     M.D.R.D… 2001-02-24 M     pardo negro <NA>  NA         <NA>  <NA> 
10 A.O.S.     K.R.S.   2003-02-06 M     pardo negro Parq… 2018-07-17 9ano  8ano 
# ℹ 15 more rows
# ℹ 14 more variables: compfam <fct>, relpai <fct>, usudrog <fct>, subst <fct>,
#   orgcrim <fct>, sitdiv <chr>, dataobt <date>, morte <fct>, paf <fct>,
#   circobt <fct>, obsobt <chr>, idadeobtd <dbl>, idadeobta <dbl>,
#   npassag <dbl>
…
Código
```{r}
names(obitj_csv) # nomes de todas as variáveis do data set

obitj_csv # exibe o data set (conjunto de dados)

levels(obitj_csv$circobt) # nomes das categorias em ordem alfabética
```

 [1] "nomean"    "maean"     "nasc"      "sexo"      "cor"       "corag"    
 [7] "dom"       "dataesc1"  "esc1"      "esc2"      "compfam"   "relpai"   
[13] "usudrog"   "subst"     "orgcrim"   "sitdiv"    "dataobt"   "morte"    
[19] "paf"       "circobt"   "obsobt"    "idadeobtd" "idadeobta" "npassag"  
# A tibble: 447 × 24
   nomean     maean    nasc       sexo  cor   corag dom   dataesc1   esc1  esc2 
   <chr>      <chr>    <date>     <fct> <fct> <fct> <chr> <date>     <fct> <fct>
 1 A.J.D.S.A. L.M.D.S… 2001-04-21 M     bran… bran… Bair… 2018-09-28 6ano  <NA> 
 2 A.G.M.B.   A.D.S.M… 2000-09-04 M     pardo negro <NA>  NA         <NA>  8ano 
 3 A.G.D.S.   F.A.G.   1997-06-22 M     <NA>  <NA>  <NA>  NA         <NA>  9ano 
 4 A.J.D.S.S. S.D.S.S. 2002-05-01 M     pardo negro Vila… 2020-02-09 1ser… 1ser…
 5 A.A.D.A.   A.A.D.A. 1999-10-13 M     <NA>  <NA>  <NA>  NA         <NA>  8ano 
 6 A.E.M.     M.E.M.   2001-03-25 M     bran… bran… <NA>  2018-10-23 8ano  8ano 
 7 A.C.A.     J.A.D.A. 2000-12-18 M     pardo negro Seto… 2018-11-18 8ano  8ano 
 8 A.O.       D.G.B.S. 2003-09-30 M     bran… bran… Bair… 2019-10-01 8ano  8ano 
 9 A.R.C.     M.D.R.D… 2001-02-24 M     pardo negro <NA>  NA         <NA>  <NA> 
10 A.O.S.     K.R.S.   2003-02-06 M     pardo negro Parq… 2018-07-17 9ano  8ano 
# ℹ 437 more rows
# ℹ 14 more variables: compfam <fct>, relpai <fct>, usudrog <fct>, subst <fct>,
#   orgcrim <fct>, sitdiv <chr>, dataobt <date>, morte <fct>, paf <fct>,
#   circobt <fct>, obsobt <chr>, idadeobtd <dbl>, idadeobta <dbl>,
#   npassag <dbl>
…
audicao # tibble:24 × 1
```

Estrutura do objeto R denominado audicao:
spc_tbl_ [24 × 1] (S3: spec_tbl_df/tbl_df/tbl/data.frame)
 $ numcorrect: num [1:24] 65 61 67 59 58 62 56 67 61 67 ...
 - attr(*, "spec")=
  .. cols(
  ..   numcorrect = col_double()
  .. )
 - attr(*, "problems")=<externalptr> 

Nomes da única coluna do objeto audicao:
[1] "numcorrect"
# A tibble: 24 × 1
   numcorrect
        <dbl>
 1         65
 2         61
 3         67
 4         59
 5         58
 6         62
 7         56
 8         67
 9         61
10         67
# ℹ 14 more rows
…
cobaias # tibble:72 × 1
```

Estrutura do objeto R denominado cobaias:
spc_tbl_ [72 × 1] (S3: spec_tbl_df/tbl_df/tbl/data.frame)
 $ days: num [1:72] 43 45 53 56 56 57 58 66 67 73 ...
 - attr(*, "spec")=
  .. cols(
  ..   days = col_double()
  .. )
 - attr(*, "problems")=<externalptr> 

Nome da única coluna do objeto cobaias:
[1] "days"
# A tibble: 72 × 1
    dias
   <dbl>
 1    43
 2    45
 3    53
 4    56
 5    56
 6    57
 7    58
 8    66
 9    67
10    73
# ℹ 62 more rows
…
